%YAML 1.1
%TAG !u! tag:unity3d.com,2011:
--- !u!1 &5420207194145147810
GameObject:
  m_ObjectHideFlags: 0
  m_CorrespondingSourceObject: {fileID: 0}
  m_PrefabInstance: {fileID: 0}
  m_PrefabAsset: {fileID: 0}
  serializedVersion: 6
  m_Component:
  - component: {fileID: 5420207194145147814}
  - component: {fileID: 5420207194145147815}
  - component: {fileID: 5420207194145147808}
  - component: {fileID: 5420207194145147809}
  m_Layer: 0
  m_Name: Terreno
  m_TagString: Ground
  m_Icon: {fileID: 0}
  m_NavMeshLayer: 0
  m_StaticEditorFlags: 0
  m_IsActive: 1
--- !u!4 &5420207194145147814
Transform:
  m_ObjectHideFlags: 0
  m_CorrespondingSourceObject: {fileID: 0}
  m_PrefabInstance: {fileID: 0}
  m_PrefabAsset: {fileID: 0}
  m_GameObject: {fileID: 5420207194145147810}
  m_LocalRotation: {x: 0, y: 0, z: 0, w: 1}
  m_LocalPosition: {x: -3.098, y: 0.85, z: -0.000094606}
  m_LocalScale: {x: 0.4945136, y: 0.53247195, z: 0.5272}
  m_Children: []
  m_Father: {fileID: 0}
  m_RootOrder: 0
  m_LocalEulerAnglesHint: {x: 0, y: 0, z: 0}
--- !u!1971053207 &5420207194145147815
SpriteShapeRenderer:
  m_ObjectHideFlags: 0
  m_CorrespondingSourceObject: {fileID: 0}
  m_PrefabInstance: {fileID: 0}
  m_PrefabAsset: {fileID: 0}
  m_GameObject: {fileID: 5420207194145147810}
  m_Enabled: 1
  m_CastShadows: 1
  m_ReceiveShadows: 1
  m_DynamicOccludee: 1
  m_MotionVectors: 1
  m_LightProbeUsage: 1
  m_ReflectionProbeUsage: 1
  m_RayTracingMode: 0
  m_RenderingLayerMask: 1
  m_RendererPriority: 0
  m_Materials:
  - {fileID: 10754, guid: 0000000000000000f000000000000000, type: 0}
  - {fileID: 10754, guid: 0000000000000000f000000000000000, type: 0}
  m_StaticBatchInfo:
    firstSubMesh: 0
    subMeshCount: 0
  m_StaticBatchRoot: {fileID: 0}
  m_ProbeAnchor: {fileID: 0}
  m_LightProbeVolumeOverride: {fileID: 0}
  m_ScaleInLightmap: 1
  m_ReceiveGI: 1
  m_PreserveUVs: 0
  m_IgnoreNormalsForChartDetection: 0
  m_ImportantGI: 0
  m_StitchLightmapSeams: 1
  m_SelectedEditorRenderState: 0
  m_MinimumChartSize: 4
  m_AutoUVMaxDistance: 0.5
  m_AutoUVMaxAngle: 89
  m_LightmapParameters: {fileID: 0}
  m_SortingLayerID: 0
  m_SortingLayer: 0
  m_SortingOrder: 0
  m_Color: {r: 1, g: 1, b: 1, a: 1}
  m_MaskInteraction: 0
  m_ShapeTexture: {fileID: 2800000, guid: d2d10e558f6f286469f949a2df06fc86, type: 3}
  m_Sprites:
  - {fileID: 21300000, guid: adffb8e4ba782bc42b3d924fbacfecdc, type: 3}
  - {fileID: 21300000, guid: 6ed51ca2160a5644f8e89a1f56be621a, type: 3}
  - {fileID: 21300000, guid: afbfdc69d505fd64893775cebea47bb8, type: 3}
  - {fileID: 21300000, guid: 6ed51ca2160a5644f8e89a1f56be621a, type: 3}
  - {fileID: 21300000, guid: 6025a93a337007c498e5add56d112364, type: 3}
  - {fileID: 21300000, guid: 6d742d13b6cd22f4e80ebe12d0963df6, type: 3}
  - {fileID: 21300000, guid: c786d59852f4fe1438bd97e43996639d, type: 3}
  - {fileID: 21300000, guid: 7bc1f43d0c2dab1429ce96a2d139d5ef, type: 3}
  - {fileID: 0}
  - {fileID: 0}
  - {fileID: 0}
  - {fileID: 0}
  m_LocalAABB:
    m_Center: {x: 3.9258704, y: -3.46601, z: -0.0002001}
    m_Extent: {x: 6.633645, y: 5.973871, z: 0.0002001}
--- !u!114 &5420207194145147808
MonoBehaviour:
  m_ObjectHideFlags: 0
  m_CorrespondingSourceObject: {fileID: 0}
  m_PrefabInstance: {fileID: 0}
  m_PrefabAsset: {fileID: 0}
  m_GameObject: {fileID: 5420207194145147810}
  m_Enabled: 1
  m_EditorHideFlags: 0
  m_Script: {fileID: 11500000, guid: 90539df1cd5704abcb25fec9f3f5f84b, type: 3}
  m_Name: 
  m_EditorClassIdentifier: 
  m_Spline:
    m_IsOpenEnded: 0
    m_ControlPoints:
    - position: {x: -2.2180681, y: -8.9418335, z: -7.247782e-10}
      leftTangent: {x: 0, y: 0, z: 0}
      rightTangent: {x: 0, y: 0, z: 0}
      mode: 0
      height: 1
      bevelCutoff: 0
      bevelSize: 0
      spriteIndex: 0
      corner: 1
    - position: {x: -1.9999999, y: 2.0082476, z: -0.000000001732261}
      leftTangent: {x: 0, y: 0, z: 0}
      rightTangent: {x: 0, y: 0, z: 0}
      mode: 0
      height: 1
      bevelCutoff: 0
      bevelSize: 0
      spriteIndex: 0
      corner: 1
    - position: {x: 10.061042, y: 1.998745, z: -0.0000000034574028}
      leftTangent: {x: 0, y: 0, z: 0}
      rightTangent: {x: 0, y: 0, z: 0}
      mode: 0
      height: 1
      bevelCutoff: 0
      bevelSize: 0
      spriteIndex: 0
      corner: 1
    - position: {x: 10.027905, y: -8.895227, z: -0.0000000013044258}
      leftTangent: {x: 0, y: 0, z: 0}
      rightTangent: {x: 0, y: 0, z: 0}
      mode: 0
      height: 1
      bevelCutoff: 0
      bevelSize: 0
      spriteIndex: 0
      corner: 1
  m_SpriteShape: {fileID: 11400000, guid: 3dffd9cc55218fa4481a824ad6479a61, type: 2}
  m_FillPixelPerUnit: 100
  m_StretchTiling: 16
  m_SplineDetail: 16
  m_AdaptiveUV: 1
  m_StretchUV: 1
  m_WorldSpaceUV: 1
  m_CornerAngleThreshold: 45
  m_ColliderDetail: 16
  m_ColliderOffset: 0.5
  m_UpdateCollider: 1
  m_OptimizeCollider: 1
  m_OptimizeGeometry: 1
  m_EnableTangents: 1
--- !u!68 &5420207194145147809
EdgeCollider2D:
  m_ObjectHideFlags: 0
  m_CorrespondingSourceObject: {fileID: 0}
  m_PrefabInstance: {fileID: 0}
  m_PrefabAsset: {fileID: 0}
  m_GameObject: {fileID: 5420207194145147810}
  m_Enabled: 1
  m_Density: 1
  m_Material: {fileID: 6200000, guid: 8ade6bc3b19027742a77f607b1cd245f, type: 2}
  m_IsTrigger: 0
  m_UsedByEffector: 0
  m_UsedByComposite: 0
  m_Offset: {x: 0, y: 0}
  m_EdgeRadius: 0
  m_Points:
  - {x: -2.7281914, y: -9.443779}
  - {x: -2.490134, y: 2.508635}
  - {x: 10.562563, y: 2.49835}
  - {x: 10.526393, y: -9.393335}
  - {x: -1.5609872, y: -9.439337}
  - {x: -1.704159, y: -9.439881}
  - {x: -2.7281914, y: -9.443779}
